{
 "custom_fields": [
  {
   "_assign": null,
   "_comments": null,
   "_liked_by": null,
   "_user_tags": null,
   "allow_in_quick_entry": 0,
   "allow_on_submit": 0,
   "bold": 0,
   "collapsible": 0,
   "collapsible_depends_on": null,
   "columns": 0,
   "creation": "2021-08-13 10:39:51.337068",
   "default": null,
   "depends_on": null,
   "description": null,
   "docstatus": 0,
   "dt": "Customer",
   "fetch_from": null,
   "fetch_if_empty": 0,
   "fieldname": "tipo_de_identificaci\u00f3n",
   "fieldtype": "Select",
   "hidden": 0,
   "hide_border": 0,
   "hide_days": 0,
   "hide_seconds": 0,
   "idx": 4,
   "ignore_user_permissions": 0,
   "ignore_xss_filter": 0,
   "in_global_search": 0,
   "in_list_view": 0,
   "in_preview": 0,
   "in_standard_filter": 0,
   "insert_after": "salutation",
   "label": "Tipo de Identificaci\u00f3n",
   "length": 0,
   "mandatory_depends_on": null,
   "modified": "2021-08-13 10:39:51.337068",
   "modified_by": "edwin_orlando83@hotmail.com",
   "name": "Customer-tipo_de_identificaci\u00f3n",
   "no_copy": 0,
   "non_negative": 0,
   "options": "04 - RUC\n05 - CEDULA\n06 - PASAPORTE\n07 - VENTA A CONSUMIDOR FINAL\n08 - IDENTIFICADOR DEL EXTERIOR",
   "owner": "edwin_orlando83@hotmail.com",
   "parent": null,
   "parentfield": null,
   "parenttype": null,
   "permlevel": 0,
   "precision": "",
   "print_hide": 0,
   "print_hide_if_no_value": 0,
   "print_width": null,
   "read_only": 0,
   "read_only_depends_on": null,
   "report_hide": 0,
   "reqd": 1,
   "search_index": 0,
   "translatable": 1,
   "unique": 0,
   "width": null
  },
  {
   "_assign": null,
   "_comments": null,
   "_liked_by": null,
   "_user_tags": null,
   "allow_in_quick_entry": 0,
   "allow_on_submit": 0,
   "bold": 0,
   "collapsible": 0,
   "collapsible_depends_on": null,
   "columns": 0,
   "creation": "2021-08-13 10:44:38.211263",
   "default": null,
   "depends_on": null,
   "description": null,
   "docstatus": 0,
   "dt": "Customer",
   "fetch_from": null,
   "fetch_if_empty": 0,
   "fieldname": "dni",
   "fieldtype": "Data",
   "hidden": 0,
   "hide_border": 0,
   "hide_days": 0,
   "hide_seconds": 0,
   "idx": 4,
   "ignore_user_permissions": 0,
   "ignore_xss_filter": 0,
   "in_global_search": 0,
   "in_list_view": 0,
   "in_preview": 0,
   "in_standard_filter": 0,
   "insert_after": "tipo_de_identificaci\u00f3n",
   "label": "DNI",
   "length": 0,
   "mandatory_depends_on": null,
   "modified": "2021-08-13 10:44:38.211263",
   "modified_by": "edwin_orlando83@hotmail.com",
   "name": "Customer-dni",
   "no_copy": 0,
   "non_negative": 0,
   "options": null,
   "owner": "edwin_orlando83@hotmail.com",
   "parent": null,
   "parentfield": null,
   "parenttype": null,
   "permlevel": 0,
   "precision": "",
   "print_hide": 0,
   "print_hide_if_no_value": 0,
   "print_width": null,
   "read_only": 0,
   "read_only_depends_on": null,
   "report_hide": 0,
   "reqd": 1,
   "search_index": 0,
   "translatable": 1,
   "unique": 1,
   "width": null
  }
 ],
 "custom_perms": [
  {
   "_assign": null,
   "_comments": null,
   "_liked_by": null,
   "_user_tags": null,
   "amend": 0,
   "cancel": 0,
   "create": 0,
   "creation": "2013-06-11 14:26:44",
   "delete": 0,
   "docstatus": 0,
   "email": 1,
   "export": 0,
   "idx": 7,
   "if_owner": 0,
   "import": 0,
   "modified": "2021-08-13 20:52:04.534028",
   "modified_by": "Administrator",
   "name": "c53b3be469",
   "owner": "Administrator",
   "parent": "Customer",
   "parentfield": "permissions",
   "parenttype": "DocType",
   "permlevel": 0,
   "print": 1,
   "read": 1,
   "report": 1,
   "role": "Stock Manager",
   "select": 0,
   "set_user_permissions": 0,
   "share": 0,
   "submit": 0,
   "write": 0
  },
  {
   "_assign": null,
   "_comments": null,
   "_liked_by": null,
   "_user_tags": null,
   "amend": 0,
   "cancel": 0,
   "create": 0,
   "creation": "2013-06-11 14:26:44",
   "delete": 0,
   "docstatus": 0,
   "email": 0,
   "export": 0,
   "idx": 5,
   "if_owner": 0,
   "import": 0,
   "modified": "2021-08-13 20:52:04.547010",
   "modified_by": "Administrator",
   "name": "5a8cff3543",
   "owner": "Administrator",
   "parent": "Customer",
   "parentfield": "permissions",
   "parenttype": "DocType",
   "permlevel": 1,
   "print": 0,
   "read": 1,
   "report": 0,
   "role": "Sales Master Manager",
   "select": 0,
   "set_user_permissions": 0,
   "share": 0,
   "submit": 0,
   "write": 1
  },
  {
   "_assign": null,
   "_comments": null,
   "_liked_by": null,
   "_user_tags": null,
   "amend": 0,
   "cancel": 0,
   "create": 0,
   "creation": "2013-06-11 14:26:44",
   "delete": 0,
   "docstatus": 0,
   "email": 1,
   "export": 0,
   "idx": 3,
   "if_owner": 0,
   "import": 0,
   "modified": "2021-08-13 20:52:04.558803",
   "modified_by": "Administrator",
   "name": "52a67ad701",
   "owner": "Administrator",
   "parent": "Customer",
   "parentfield": "permissions",
   "parenttype": "DocType",
   "permlevel": 0,
   "print": 1,
   "read": 1,
   "report": 1,
   "role": "Sales Manager",
   "select": 0,
   "set_user_permissions": 0,
   "share": 0,
   "submit": 0,
   "write": 0
  },
  {
   "_assign": null,
   "_comments": null,
   "_liked_by": null,
   "_user_tags": null,
   "amend": 0,
   "cancel": 0,
   "create": 0,
   "creation": "2013-06-11 14:26:44",
   "delete": 0,
   "docstatus": 0,
   "email": 1,
   "export": 0,
   "idx": 9,
   "if_owner": 0,
   "import": 0,
   "modified": "2021-08-13 20:52:04.570361",
   "modified_by": "Administrator",
   "name": "19a6928a02",
   "owner": "Administrator",
   "parent": "Customer",
   "parentfield": "permissions",
   "parenttype": "DocType",
   "permlevel": 0,
   "print": 1,
   "read": 1,
   "report": 1,
   "role": "Accounts Manager",
   "select": 0,
   "set_user_permissions": 0,
   "share": 0,
   "submit": 0,
   "write": 0
  },
  {
   "_assign": null,
   "_comments": null,
   "_liked_by": null,
   "_user_tags": null,
   "amend": 0,
   "cancel": 0,
   "create": 0,
   "creation": "2013-06-11 14:26:44",
   "delete": 0,
   "docstatus": 0,
   "email": 0,
   "export": 0,
   "idx": 2,
   "if_owner": 0,
   "import": 0,
   "modified": "2021-08-13 20:52:04.581966",
   "modified_by": "Administrator",
   "name": "7091aa4a97",
   "owner": "Administrator",
   "parent": "Customer",
   "parentfield": "permissions",
   "parenttype": "DocType",
   "permlevel": 1,
   "print": 0,
   "read": 1,
   "report": 0,
   "role": "Sales User",
   "select": 0,
   "set_user_permissions": 0,
   "share": 0,
   "submit": 0,
   "write": 0
  },
  {
   "_assign": null,
   "_comments": null,
   "_liked_by": null,
   "_user_tags": null,
   "amend": 0,
   "cancel": 0,
   "create": 1,
   "creation": "2013-06-11 14:26:44",
   "delete": 1,
   "docstatus": 0,
   "email": 1,
   "export": 1,
   "idx": 4,
   "if_owner": 0,
   "import": 1,
   "modified": "2021-08-13 20:52:04.593539",
   "modified_by": "Administrator",
   "name": "16240937e8",
   "owner": "Administrator",
   "parent": "Customer",
   "parentfield": "permissions",
   "parenttype": "DocType",
   "permlevel": 0,
   "print": 1,
   "read": 1,
   "report": 1,
   "role": "Sales Master Manager",
   "select": 0,
   "set_user_permissions": 1,
   "share": 1,
   "submit": 0,
   "write": 1
  },
  {
   "_assign": null,
   "_comments": null,
   "_liked_by": null,
   "_user_tags": null,
   "amend": 0,
   "cancel": 0,
   "create": 0,
   "creation": "2013-06-11 14:26:44",
   "delete": 0,
   "docstatus": 0,
   "email": 1,
   "export": 0,
   "idx": 8,
   "if_owner": 0,
   "import": 0,
   "modified": "2021-08-13 20:52:04.605055",
   "modified_by": "Administrator",
   "name": "b81598d0a0",
   "owner": "Administrator",
   "parent": "Customer",
   "parentfield": "permissions",
   "parenttype": "DocType",
   "permlevel": 0,
   "print": 1,
   "read": 1,
   "report": 1,
   "role": "Accounts User",
   "select": 0,
   "set_user_permissions": 0,
   "share": 0,
   "submit": 0,
   "write": 0
  },
  {
   "_assign": null,
   "_comments": null,
   "_liked_by": null,
   "_user_tags": null,
   "amend": 0,
   "cancel": 0,
   "create": 1,
   "creation": "2013-06-11 14:26:44",
   "delete": 0,
   "docstatus": 0,
   "email": 1,
   "export": 0,
   "idx": 1,
   "if_owner": 0,
   "import": 0,
   "modified": "2021-08-13 20:52:04.616623",
   "modified_by": "Administrator",
   "name": "a10c678f20",
   "owner": "Administrator",
   "parent": "Customer",
   "parentfield": "permissions",
   "parenttype": "DocType",
   "permlevel": 0,
   "print": 1,
   "read": 1,
   "report": 1,
   "role": "Sales User",
   "select": 0,
   "set_user_permissions": 0,
   "share": 1,
   "submit": 0,
   "write": 1
  },
  {
   "_assign": null,
   "_comments": null,
   "_liked_by": null,
   "_user_tags": null,
   "amend": 0,
   "cancel": 0,
   "create": 0,
   "creation": "2013-06-11 14:26:44",
   "delete": 0,
   "docstatus": 0,
   "email": 1,
   "export": 0,
   "idx": 6,
   "if_owner": 0,
   "import": 0,
   "modified": "2021-08-13 20:52:04.629723",
   "modified_by": "Administrator",
   "name": "1af3733763",
   "owner": "Administrator",
   "parent": "Customer",
   "parentfield": "permissions",
   "parenttype": "DocType",
   "permlevel": 0,
   "print": 1,
   "read": 1,
   "report": 1,
   "role": "Stock User",
   "select": 0,
   "set_user_permissions": 0,
   "share": 0,
   "submit": 0,
   "write": 0
  },
  {
   "_assign": null,
   "_comments": null,
   "_liked_by": null,
   "_user_tags": null,
   "amend": 0,
   "cancel": 0,
   "create": 0,
   "creation": "2021-08-13 20:52:04.643327",
   "delete": 0,
   "docstatus": 0,
   "email": 0,
   "export": 1,
   "idx": 0,
   "if_owner": 0,
   "import": 0,
   "modified": "2021-08-13 20:52:04.685291",
   "modified_by": "Administrator",
   "name": "0d5cc4f691",
   "owner": "Administrator",
   "parent": "Customer",
   "parentfield": "permissions",
   "parenttype": "DocType",
   "permlevel": 0,
   "print": 0,
   "read": 0,
   "report": 0,
   "role": "Employee Self Service",
   "select": 1,
   "set_user_permissions": 0,
   "share": 0,
   "submit": 0,
   "write": 0
  }
 ],
 "doctype": "Customer",
 "property_setters": [
  {
   "_assign": null,
   "_comments": null,
   "_liked_by": null,
   "_user_tags": null,
   "creation": "2021-09-03 12:33:25.730830",
   "default_value": null,
   "doc_type": "Customer",
   "docstatus": 0,
   "doctype_or_field": "DocField",
   "field_name": "naming_series",
   "idx": 0,
   "modified": "2021-09-03 12:33:25.730830",
   "modified_by": "Administrator",
   "name": "Customer-naming_series-options",
   "owner": "Administrator",
   "parent": null,
   "parentfield": null,
   "parenttype": null,
   "property": "options",
   "property_type": "Text",
   "row_name": null,
   "value": "CUST-.YYYY.-"
  },
  {
   "_assign": null,
   "_comments": null,
   "_liked_by": null,
   "_user_tags": null,
   "creation": "2021-08-13 10:28:47.306909",
   "default_value": null,
   "doc_type": "Customer",
   "docstatus": 0,
   "doctype_or_field": "DocField",
   "field_name": "naming_series",
   "idx": 0,
   "modified": "2021-08-13 10:28:47.306909",
   "modified_by": "Administrator",
   "name": "Customer-naming_series-hidden",
   "owner": "Administrator",
   "parent": null,
   "parentfield": null,
   "parenttype": null,
   "property": "hidden",
   "property_type": "Check",
   "row_name": null,
   "value": "1"
  },
  {
   "_assign": null,
   "_comments": null,
   "_liked_by": null,
   "_user_tags": null,
   "creation": "2021-08-13 10:28:47.276377",
   "default_value": null,
   "doc_type": "Customer",
   "docstatus": 0,
   "doctype_or_field": "DocField",
   "field_name": "naming_series",
   "idx": 0,
   "modified": "2021-08-13 10:28:47.276377",
   "modified_by": "Administrator",
   "name": "Customer-naming_series-reqd",
   "owner": "Administrator",
   "parent": null,
   "parentfield": null,
   "parenttype": null,
   "property": "reqd",
   "property_type": "Check",
   "row_name": null,
   "value": "0"
  }
 ],
 "sync_on_migrate": 1
}