{
 "custom_fields": [
  {
   "_assign": null,
   "_comments": null,
   "_liked_by": null,
   "_user_tags": null,
   "allow_in_quick_entry": 0,
   "allow_on_submit": 0,
   "bold": 0,
   "collapsible": 0,
   "collapsible_depends_on": null,
   "columns": 0,
   "creation": "2021-11-08 04:25:30.609683",
   "default": null,
   "depends_on": null,
   "description": null,
   "docstatus": 0,
   "dt": "POS Closing Entry",
   "fetch_from": null,
   "fetch_if_empty": 0,
   "fieldname": "salidas_de_caja_chica",
   "fieldtype": "Section Break",
   "hidden": 0,
   "hide_border": 0,
   "hide_days": 0,
   "hide_seconds": 0,
   "idx": 19,
   "ignore_user_permissions": 0,
   "ignore_xss_filter": 0,
   "in_global_search": 0,
   "in_list_view": 0,
   "in_preview": 0,
   "in_standard_filter": 0,
   "insert_after": "payment_reconciliation",
   "label": "Salidas de Caja Chica",
   "length": 0,
   "mandatory_depends_on": null,
   "modified": "2021-11-08 04:25:30.609683",
   "modified_by": "Administrator",
   "name": "POS Closing Entry-salidas_de_caja_chica",
   "no_copy": 0,
   "non_negative": 0,
   "options": null,
   "owner": "Administrator",
   "parent": null,
   "parentfield": null,
   "parenttype": null,
   "permlevel": 0,
   "precision": "",
   "print_hide": 0,
   "print_hide_if_no_value": 0,
   "print_width": null,
   "read_only": 0,
   "read_only_depends_on": null,
   "report_hide": 0,
   "reqd": 0,
   "search_index": 0,
   "translatable": 0,
   "unique": 0,
   "width": null
  },
  {
   "_assign": null,
   "_comments": null,
   "_liked_by": null,
   "_user_tags": null,
   "allow_in_quick_entry": 0,
   "allow_on_submit": 0,
   "bold": 0,
   "collapsible": 0,
   "collapsible_depends_on": "",
   "columns": 0,
   "creation": "2021-11-08 04:25:31.067472",
   "default": null,
   "depends_on": null,
   "description": null,
   "docstatus": 0,
   "dt": "POS Closing Entry",
   "fetch_from": null,
   "fetch_if_empty": 0,
   "fieldname": "pos_caja_menor",
   "fieldtype": "Table",
   "hidden": 0,
   "hide_border": 0,
   "hide_days": 0,
   "hide_seconds": 0,
   "idx": 21,
   "ignore_user_permissions": 0,
   "ignore_xss_filter": 0,
   "in_global_search": 0,
   "in_list_view": 0,
   "in_preview": 0,
   "in_standard_filter": 0,
   "insert_after": "verificar_salidas",
   "label": "pos_caja_menor",
   "length": 0,
   "mandatory_depends_on": null,
   "modified": "2021-11-08 04:25:31.067472",
   "modified_by": "Administrator",
   "name": "POS Closing Entry-pos_caja_menor",
   "no_copy": 0,
   "non_negative": 0,
   "options": "pos_caja_menor",
   "owner": "Administrator",
   "parent": null,
   "parentfield": null,
   "parenttype": null,
   "permlevel": 0,
   "precision": "",
   "print_hide": 0,
   "print_hide_if_no_value": 0,
   "print_width": null,
   "read_only": 0,
   "read_only_depends_on": null,
   "report_hide": 0,
   "reqd": 0,
   "search_index": 0,
   "translatable": 0,
   "unique": 0,
   "width": null
  },
  {
   "_assign": null,
   "_comments": null,
   "_liked_by": null,
   "_user_tags": null,
   "allow_in_quick_entry": 0,
   "allow_on_submit": 0,
   "bold": 0,
   "collapsible": 0,
   "collapsible_depends_on": null,
   "columns": 0,
   "creation": "2021-11-08 04:29:21.714245",
   "default": null,
   "depends_on": null,
   "description": null,
   "docstatus": 0,
   "dt": "POS Closing Entry",
   "fetch_from": null,
   "fetch_if_empty": 0,
   "fieldname": "verificar_salidas",
   "fieldtype": "Button",
   "hidden": 0,
   "hide_border": 0,
   "hide_days": 0,
   "hide_seconds": 0,
   "idx": 20,
   "ignore_user_permissions": 0,
   "ignore_xss_filter": 0,
   "in_global_search": 0,
   "in_list_view": 0,
   "in_preview": 0,
   "in_standard_filter": 0,
   "insert_after": "salidas_de_caja_chica",
   "label": "Verificar Salidas",
   "length": 0,
   "mandatory_depends_on": null,
   "modified": "2021-11-08 04:29:21.714245",
   "modified_by": "Administrator",
   "name": "POS Closing Entry-verificar_salidas",
   "no_copy": 0,
   "non_negative": 0,
   "options": null,
   "owner": "Administrator",
   "parent": null,
   "parentfield": null,
   "parenttype": null,
   "permlevel": 0,
   "precision": "",
   "print_hide": 0,
   "print_hide_if_no_value": 0,
   "print_width": null,
   "read_only": 0,
   "read_only_depends_on": null,
   "report_hide": 0,
   "reqd": 0,
   "search_index": 0,
   "translatable": 0,
   "unique": 0,
   "width": null
  },
  {
   "_assign": null,
   "_comments": null,
   "_liked_by": null,
   "_user_tags": null,
   "allow_in_quick_entry": 0,
   "allow_on_submit": 0,
   "bold": 0,
   "collapsible": 0,
   "collapsible_depends_on": "",
   "columns": 0,
   "creation": "2021-11-08 05:52:52.239987",
   "default": null,
   "depends_on": null,
   "description": null,
   "docstatus": 0,
   "dt": "POS Closing Entry",
   "fetch_from": null,
   "fetch_if_empty": 0,
   "fieldname": "total_caja_chica",
   "fieldtype": "Currency",
   "hidden": 0,
   "hide_border": 0,
   "hide_days": 0,
   "hide_seconds": 0,
   "idx": 22,
   "ignore_user_permissions": 0,
   "ignore_xss_filter": 0,
   "in_global_search": 0,
   "in_list_view": 0,
   "in_preview": 0,
   "in_standard_filter": 0,
   "insert_after": "pos_caja_menor",
   "label": "Total Caja Chica",
   "length": 0,
   "mandatory_depends_on": null,
   "modified": "2021-11-08 05:52:52.239987",
   "modified_by": "Administrator",
   "name": "POS Closing Entry-total_caja_chica",
   "no_copy": 0,
   "non_negative": 0,
   "options": null,
   "owner": "Administrator",
   "parent": null,
   "parentfield": null,
   "parenttype": null,
   "permlevel": 0,
   "precision": "",
   "print_hide": 0,
   "print_hide_if_no_value": 0,
   "print_width": null,
   "read_only": 1,
   "read_only_depends_on": null,
   "report_hide": 0,
   "reqd": 0,
   "search_index": 0,
   "translatable": 0,
   "unique": 0,
   "width": null
  }
 ],
 "custom_perms": [
  {
   "_assign": null,
   "_comments": null,
   "_liked_by": null,
   "_user_tags": null,
   "amend": 0,
   "cancel": 1,
   "create": 1,
   "creation": "2018-05-28 19:06:40.830043",
   "delete": 1,
   "docstatus": 0,
   "email": 1,
   "export": 1,
   "idx": 1,
   "if_owner": 0,
   "import": 0,
   "modified": "2021-10-07 19:16:08.852946",
   "modified_by": "silvia@gmail.com",
   "name": "c34b918225",
   "owner": "Administrator",
   "parent": "POS Closing Entry",
   "parentfield": "permissions",
   "parenttype": "DocType",
   "permlevel": 0,
   "print": 1,
   "read": 1,
   "report": 1,
   "role": "System Manager",
   "select": 0,
   "set_user_permissions": 0,
   "share": 1,
   "submit": 1,
   "write": 1
  },
  {
   "_assign": null,
   "_comments": null,
   "_liked_by": null,
   "_user_tags": null,
   "amend": 0,
   "cancel": 1,
   "create": 1,
   "creation": "2018-05-28 19:06:40.830043",
   "delete": 1,
   "docstatus": 0,
   "email": 1,
   "export": 1,
   "idx": 3,
   "if_owner": 0,
   "import": 0,
   "modified": "2021-10-07 19:16:08.883098",
   "modified_by": "silvia@gmail.com",
   "name": "149f12d774",
   "owner": "Administrator",
   "parent": "POS Closing Entry",
   "parentfield": "permissions",
   "parenttype": "DocType",
   "permlevel": 0,
   "print": 1,
   "read": 1,
   "report": 1,
   "role": "Administrator",
   "select": 0,
   "set_user_permissions": 0,
   "share": 1,
   "submit": 1,
   "write": 1
  },
  {
   "_assign": null,
   "_comments": null,
   "_liked_by": null,
   "_user_tags": null,
   "amend": 0,
   "cancel": 1,
   "create": 1,
   "creation": "2018-05-28 19:06:40.830043",
   "delete": 0,
   "docstatus": 0,
   "email": 1,
   "export": 1,
   "idx": 2,
   "if_owner": 0,
   "import": 0,
   "modified": "2021-10-07 19:16:08.907689",
   "modified_by": "silvia@gmail.com",
   "name": "d8f87736c9",
   "owner": "Administrator",
   "parent": "POS Closing Entry",
   "parentfield": "permissions",
   "parenttype": "DocType",
   "permlevel": 0,
   "print": 1,
   "read": 1,
   "report": 1,
   "role": "Sales Manager",
   "select": 0,
   "set_user_permissions": 0,
   "share": 1,
   "submit": 1,
   "write": 1
  },
  {
   "_assign": null,
   "_comments": null,
   "_liked_by": null,
   "_user_tags": null,
   "amend": 0,
   "cancel": 0,
   "create": 0,
   "creation": "2021-10-07 19:16:08.942825",
   "delete": 0,
   "docstatus": 0,
   "email": 0,
   "export": 1,
   "idx": 0,
   "if_owner": 0,
   "import": 0,
   "modified": "2021-10-07 19:16:08.942825",
   "modified_by": "silvia@gmail.com",
   "name": "55dfb930e3",
   "owner": "silvia@gmail.com",
   "parent": "POS Closing Entry",
   "parentfield": "permissions",
   "parenttype": "DocType",
   "permlevel": 0,
   "print": 0,
   "read": 1,
   "report": 0,
   "role": "Sales User",
   "select": 0,
   "set_user_permissions": 0,
   "share": 0,
   "submit": 0,
   "write": 0
  }
 ],
 "doctype": "POS Closing Entry",
 "property_setters": [],
 "sync_on_migrate": 1
}