{
 "actions": [],
 "allow_rename": 1,
 "creation": "2021-10-21 09:23:36.630465",
 "doctype": "DocType",
 "editable_grid": 1,
 "engine": "InnoDB",
 "field_order": [
  "actualizar_section",
  "btnpos"
 ],
 "fields": [
  {
   "fieldname": "btnpos",
   "fieldtype": "Button",
   "label": "point-of-sale.min.js"
  },
  {
   "fieldname": "actualizar_section",
   "fieldtype": "Section Break",
   "label": "Actualizar"
  }
 ],
 "index_web_pages_for_search": 1,
 "issingle": 1,
 "links": [],
 "modified": "2021-10-21 09:49:28.126858",
 "modified_by": "Administrator",
 "module": "ECNEXT",
 "name": "Configuraciones",
 "owner": "Administrator",
 "permissions": [
  {
   "create": 1,
   "delete": 1,
   "email": 1,
   "print": 1,
   "read": 1,
   "role": "System Manager",
   "share": 1,
   "write": 1
  }
 ],
 "sort_field": "modified",
 "sort_order": "DESC",
 "track_changes": 1
}