{
 "add_total_row": 1,
 "columns": [],
 "creation": "2021-10-22 04:05:25.827848",
 "disable_prepared_report": 0,
 "disabled": 0,
 "docstatus": 0,
 "doctype": "Report",
 "filters": [],
 "idx": 0,
 "is_standard": "Yes",
 "modified": "2021-10-22 04:05:25.827848",
 "modified_by": "Administrator",
 "module": "ECNEXT",
 "name": "reporte_ceditos_pagados",
 "owner": "Administrator",
 "prepared_report": 0,
 "query": "select f.name \"Documento:Link/POS Invoice:180\",  \r\ncustomer  \"Cliente:Link/Customer:250\" , \r\nposting_date \"Fecha:Date:100\"  ,\r\ntotal \"Total Doc.:Currency:100\"  ,\r\namount \"Total cr\u00e9dito:Currency:140\"    \r\nfrom `tabPOS Invoice` f inner join  \r\n`tabSales Invoice Payment` p  on (f.name= p.parent)\r\n  where mode_of_payment ='CREDITO'  and f.fecha_pago is not null",
 "ref_doctype": "POS Invoice",
 "report_name": "reporte_ceditos_pagados",
 "report_type": "Query Report",
 "roles": [
  {
   "role": "Accounts Manager"
  },
  {
   "role": "Accounts User"
  }
 ]
}